"NAME","SCHEMAID"
"RKM:Configuration",2766
"RKM:KnowledgeArticleManager",2795
"RKM:ArticleHistory",2758
"RKM:KnowledgeSources",2797
"FIN:ConfigCostRates",832
"CFG:BroadcastSPGAssociation",904
"CTM:CFG-ApplicationPreferences",969
"SYS:ViewSelectionSupportGrpRoleMapping",1126
"BMC.AM:BMC_InventoryStorage_",804
"AST:Schedule Association",1773
"AST:LicenseCertificates",1824
"CHG:CFG Rules",1902
"CHG:Template",1949
"HPD:Template",2106
"PBM:Investigation Effort Log",2157
"SRM:AppInstanceBridge",1559
"TMS:ParentApplicationObject",1297
"TMS:TaskGroupTemplate",1323
"AAS:Activity",1547
"RMS:CFG Milestones",2005
"CTM:Support Group",1025
"CTM:People Permission Groups",1007
"CTM:People_Template_SFR",1015
"SYS:Escalation",1096
"CFG:Decision Tree",916
"CFG:Group Event Mapping",927
"CFG:Scripts",957
"APR:Approver Lookup",1239
"APR:Non-ApprovalNotifications",1242
"CFG:Assignment",898
"CFG:Broadcast",902
"SYS:ViewSelectionPPLRoleMapping",1121
"AST:WorkLog",1407
"AST:AssetPeople",1383
"AST:CI Unavailability",1816
"AST:ConfigLicenseMgmt",1699
"AST:ConfigurationApprovalProcess",1711
"CTR:ContractBase",889
"CHG:Infrastructure Change",1965
"CHG:Infra. Change Effort Log",1938
"CHG:TemplateSPGAssoc",1950
"HPD:Help Desk",2116
"HPD:IncidentInterface_Create",2094
"HPD:TemplateCustMapping",2107
"HPD:TemplateSPGAssoc",2108
"PBM:Known Error",2190
"PBM:ProblemInterface_Create",2176
"SRM:Request",1579
"TMS:Task",1321
"TMS:TaskEffort",1309
"TMS:TaskGroup",1322
"TMS:TaskTemplate",1324
"RMS:Release",2049
"RMS:CFG Rules",2008
"CTM:Support Group Alias",1026
"SYS:ViewSelectionMasterRoleMapping",1120
"AST:PurchaseRequisitionWorkLog",1766
"HPD:Help Desk Assignment Log",2079
"PBM:Problem Investigation",2192
"PBM:Solution Database",2193
"SRM:RequestInterface_Create",1580
"TMS:Flow",1319
"CTM:SYS-Access Permission Grps",292
"AST:Install_ASI",1394
"AST:ASTSLM:Qualbuilder",1653
"HPD:HPDSLM:Qualbuilder",2078
"AST:Schedule Criteria",1774
"CHG:CHGSLM:Qualbuilder",1904
"SRM:SLMSRM:Qualbuilder",1581
"CHG:ChangeInterface_Create",1905
"CTR:ContractBase",889
